…
``` r
plate1 %>% group_by(cell_line, gfp, density) %>% tally()
```

    ## # A tibble: 24 x 4
    ## # Groups:   cell_line, gfp [6]
    ##    cell_line gfp   density     n
    ##    <chr>     <lgl>   <dbl> <int>
    ##  1 SW-1      FALSE     2.5    12
    ##  2 SW-1      FALSE     5      12
    ##  3 SW-1      FALSE     7.5    12
    ##  4 SW-1      FALSE    10      12
    ##  5 SW-1      TRUE      2.5    12
    ##  6 SW-1      TRUE      5      12
    ##  7 SW-1      TRUE      7.5    12
    ##  8 SW-1      TRUE     10      12
    ##  9 SW-11     FALSE     2.5    24
    ## 10 SW-11     FALSE     5      24
    ## # … with 14 more rows

``` r
bind_rows(plate1, plate2) %>% group_by(cell_line, gfp, density) %>% tally()
```

    ## # A tibble: 24 x 4
    ## # Groups:   cell_line, gfp [6]
    ##    cell_line gfp   density     n
    ##    <chr>     <lgl>   <dbl> <int>
    ##  1 SW-1      FALSE     2.5    12
    ##  2 SW-1      FALSE     5      12
    ##  3 SW-1      FALSE     7.5    12
    ##  4 SW-1      FALSE    10      12
    ##  5 SW-1      TRUE      2.5    12
    ##  6 SW-1      TRUE      5      12
    ##  7 SW-1      TRUE      7.5    12
    ##  8 SW-1      TRUE     10      12
    ##  9 SW-11     FALSE     2.5    48
    ## 10 SW-11     FALSE     5      48
    ## # … with 14 more rows
…
