…
Report based on profiles (should be identical)

``` r
replicates_per_line <- 
  profiles %>%
  group_by(Metadata_Plate, Metadata_line_ID) %>%
  tally()

replicates_per_line
```

    ## # A tibble: 48 x 3
    ## # Groups:   Metadata_Plate [1]
    ##    Metadata_Plate Metadata_line_ID     n
    ##    <chr>                     <dbl> <int>
    ##  1 BR_NCP_STEM_1                 1     8
    ##  2 BR_NCP_STEM_1                 2     8
    ##  3 BR_NCP_STEM_1                 3     8
    ##  4 BR_NCP_STEM_1                 4     8
    ##  5 BR_NCP_STEM_1                 5     8
    ##  6 BR_NCP_STEM_1                 6     8
    ##  7 BR_NCP_STEM_1                 7     8
    ##  8 BR_NCP_STEM_1                 8     8
    ##  9 BR_NCP_STEM_1                 9     8
    ## 10 BR_NCP_STEM_1                10     8
    ## # … with 38 more rows
…
